%YAML 1.1
%TAG !u! tag:unity3d.com,2011:
--- !u!1001 &1446951123082689811
PrefabInstance:
  m_ObjectHideFlags: 0
  serializedVersion: 2
  m_Modification:
    m_TransformParent: {fileID: 0}
    m_Modifications:
    - target: {fileID: 929219045977385280, guid: 234907bad0d3cd0429d2654bf0ded16c,
        type: 3}
      propertyPath: m_audioClip
      value: 
      objectReference: {fileID: 8300000, guid: 95f769f0b136a7f4bafa032ff41946ba, type: 3}
    - target: {fileID: 2022919760025395748, guid: 234907bad0d3cd0429d2654bf0ded16c,
        type: 3}
      propertyPath: m_Materials.Array.data[3]
      value: 
      objectReference: {fileID: 2100000, guid: 6a72b400d7a340b43ac1dc6cac153a38, type: 2}
    - target: {fileID: 2022919760025395748, guid: 234907bad0d3cd0429d2654bf0ded16c,
        type: 3}
      propertyPath: m_Materials.Array.data[4]
      value: 
      objectReference: {fileID: 2100000, guid: 40035042692eaa843bad14b3c6926981, type: 2}
    - target: {fileID: 2205746466557343199, guid: 234907bad0d3cd0429d2654bf0ded16c,
        type: 3}
      propertyPath: m_RootOrder
      value: 8
      objectReference: {fileID: 0}
    - target: {fileID: 3113578963566916593, guid: 234907bad0d3cd0429d2654bf0ded16c,
        type: 3}
      propertyPath: m_RootOrder
      value: 6
      objectReference: {fileID: 0}
    - target: {fileID: 5293572460451827648, guid: 234907bad0d3cd0429d2654bf0ded16c,
        type: 3}
      propertyPath: m_RootOrder
      value: 7
      objectReference: {fileID: 0}
    - target: {fileID: 6324899978558211215, guid: 234907bad0d3cd0429d2654bf0ded16c,
        type: 3}
      propertyPath: m_Materials.Array.data[1]
      value: 
      objectReference: {fileID: 2100000, guid: 630c8afea0d2d10478f96354f65a2039, type: 2}
    - target: {fileID: 6324899978558211215, guid: 234907bad0d3cd0429d2654bf0ded16c,
        type: 3}
      propertyPath: m_Materials.Array.data[2]
      value: 
      objectReference: {fileID: 2100000, guid: e87be56f216ec4b48a7438a59de66900, type: 2}
    - target: {fileID: 6324899978558211215, guid: 234907bad0d3cd0429d2654bf0ded16c,
        type: 3}
      propertyPath: m_Materials.Array.data[3]
      value: 
      objectReference: {fileID: 2100000, guid: 88a56236e2d25904d9e2e0421e359b9a, type: 2}
    - target: {fileID: 6324899978558211215, guid: 234907bad0d3cd0429d2654bf0ded16c,
        type: 3}
      propertyPath: m_Materials.Array.data[4]
      value: 
      objectReference: {fileID: 2100000, guid: 795a68aa013284c41b51c93adddf1ddb, type: 2}
    - target: {fileID: 6324899978558211215, guid: 234907bad0d3cd0429d2654bf0ded16c,
        type: 3}
      propertyPath: m_Materials.Array.data[5]
      value: 
      objectReference: {fileID: 2100000, guid: 38666da3f74324044bb8f8e0308e8437, type: 2}
    - target: {fileID: 6324899978558211215, guid: 234907bad0d3cd0429d2654bf0ded16c,
        type: 3}
      propertyPath: m_Materials.Array.data[6]
      value: 
      objectReference: {fileID: 2100000, guid: c3b426047f3dd0a4aaf9694b33fc9c21, type: 2}
    - target: {fileID: 6324899978558211215, guid: 234907bad0d3cd0429d2654bf0ded16c,
        type: 3}
      propertyPath: m_Materials.Array.data[7]
      value: 
      objectReference: {fileID: 2100000, guid: 3e254264d5624694d8c8b2b7d9425282, type: 2}
    - target: {fileID: 6671781298519691050, guid: 234907bad0d3cd0429d2654bf0ded16c,
        type: 3}
      propertyPath: m_LocalPosition.x
      value: 0
      objectReference: {fileID: 0}
    - target: {fileID: 6671781298519691050, guid: 234907bad0d3cd0429d2654bf0ded16c,
        type: 3}
      propertyPath: m_LocalPosition.y
      value: 0
      objectReference: {fileID: 0}
    - target: {fileID: 6671781298519691050, guid: 234907bad0d3cd0429d2654bf0ded16c,
        type: 3}
      propertyPath: m_LocalPosition.z
      value: 0
      objectReference: {fileID: 0}
    - target: {fileID: 6671781298519691050, guid: 234907bad0d3cd0429d2654bf0ded16c,
        type: 3}
      propertyPath: m_LocalRotation.x
      value: 0
      objectReference: {fileID: 0}
    - target: {fileID: 6671781298519691050, guid: 234907bad0d3cd0429d2654bf0ded16c,
        type: 3}
      propertyPath: m_LocalRotation.y
      value: 0
      objectReference: {fileID: 0}
    - target: {fileID: 6671781298519691050, guid: 234907bad0d3cd0429d2654bf0ded16c,
        type: 3}
      propertyPath: m_LocalRotation.z
      value: 0
      objectReference: {fileID: 0}
    - target: {fileID: 6671781298519691050, guid: 234907bad0d3cd0429d2654bf0ded16c,
        type: 3}
      propertyPath: m_LocalRotation.w
      value: 1
      objectReference: {fileID: 0}
    - target: {fileID: 6671781298519691050, guid: 234907bad0d3cd0429d2654bf0ded16c,
        type: 3}
      propertyPath: m_RootOrder
      value: 0
      objectReference: {fileID: 0}
    - target: {fileID: 6671781298519691050, guid: 234907bad0d3cd0429d2654bf0ded16c,
        type: 3}
      propertyPath: m_LocalEulerAnglesHint.x
      value: 0
      objectReference: {fileID: 0}
    - target: {fileID: 6671781298519691050, guid: 234907bad0d3cd0429d2654bf0ded16c,
        type: 3}
      propertyPath: m_LocalEulerAnglesHint.y
      value: 0
      objectReference: {fileID: 0}
    - target: {fileID: 6671781298519691050, guid: 234907bad0d3cd0429d2654bf0ded16c,
        type: 3}
      propertyPath: m_LocalEulerAnglesHint.z
      value: 0
      objectReference: {fileID: 0}
    - target: {fileID: 6671781298519691054, guid: 234907bad0d3cd0429d2654bf0ded16c,
        type: 3}
      propertyPath: m_Name
      value: Player_3
      objectReference: {fileID: 0}
    - target: {fileID: 6683309629826595007, guid: 234907bad0d3cd0429d2654bf0ded16c,
        type: 3}
      propertyPath: m_Materials.Array.data[3]
      value: 
      objectReference: {fileID: 2100000, guid: 6a72b400d7a340b43ac1dc6cac153a38, type: 2}
    - target: {fileID: 6683309629826595007, guid: 234907bad0d3cd0429d2654bf0ded16c,
        type: 3}
      propertyPath: m_Materials.Array.data[4]
      value: 
      objectReference: {fileID: 2100000, guid: 40035042692eaa843bad14b3c6926981, type: 2}
    - target: {fileID: 6793064232268320851, guid: 234907bad0d3cd0429d2654bf0ded16c,
        type: 3}
      propertyPath: m_RootOrder
      value: 7
      objectReference: {fileID: 0}
    m_RemovedComponents: []
  m_SourcePrefab: {fileID: 100100000, guid: 234907bad0d3cd0429d2654bf0ded16c, type: 3}
