%YAML 1.1
%TAG !u! tag:unity3d.com,2011:
--- !u!1 &1669816397064520612
GameObject:
  m_ObjectHideFlags: 0
  m_CorrespondingSourceObject: {fileID: 0}
  m_PrefabInstance: {fileID: 0}
  m_PrefabAsset: {fileID: 0}
  serializedVersion: 6
  m_Component:
  - component: {fileID: 1669816397064520614}
  - component: {fileID: 1669816397064520615}
  m_Layer: 0
  m_Name: ParticleManager
  m_TagString: Untagged
  m_Icon: {fileID: 0}
  m_NavMeshLayer: 0
  m_StaticEditorFlags: 0
  m_IsActive: 1
--- !u!4 &1669816397064520614
Transform:
  m_ObjectHideFlags: 0
  m_CorrespondingSourceObject: {fileID: 0}
  m_PrefabInstance: {fileID: 0}
  m_PrefabAsset: {fileID: 0}
  m_GameObject: {fileID: 1669816397064520612}
  m_LocalRotation: {x: 0, y: 0, z: 0, w: 1}
  m_LocalPosition: {x: 11.15, y: 2.9744825, z: -7.29}
  m_LocalScale: {x: 1, y: 1, z: 1}
  m_Children: []
  m_Father: {fileID: 0}
  m_RootOrder: 0
  m_LocalEulerAnglesHint: {x: 0, y: 0, z: 0}
--- !u!114 &1669816397064520615
MonoBehaviour:
  m_ObjectHideFlags: 0
  m_CorrespondingSourceObject: {fileID: 0}
  m_PrefabInstance: {fileID: 0}
  m_PrefabAsset: {fileID: 0}
  m_GameObject: {fileID: 1669816397064520612}
  m_Enabled: 1
  m_EditorHideFlags: 0
  m_Script: {fileID: 11500000, guid: 0dcabbba10a7db34991aebb62fcce3be, type: 3}
  m_Name: 
  m_EditorClassIdentifier: 
  effects:
  - {fileID: 2760549189216734409, guid: 04e925736e8e72140b3eef24676625f5, type: 3}
  - {fileID: 7005492493519914386, guid: c8ecd6fe10b317f4f9615d06bbd6aff5, type: 3}
  - {fileID: 465663234340492742, guid: 6547d330eeaaf4f45b272e7eee68526c, type: 3}
  - {fileID: 191186, guid: 9ba6e29ec90aee94e95bb2192fc70c43, type: 3}
  - {fileID: 4192818614888861629, guid: d068e66fdc9e6ed4c9fd92495dcb0149, type: 3}
  - {fileID: 100000, guid: e0a94ce8304cfda46914860e6492bb6c, type: 3}
  - {fileID: 7981187340395411989, guid: eb4d1171376647840adf56000cd43906, type: 3}
  - {fileID: 2285482201569368872, guid: 11e7324fae126e049b214dccf6867763, type: 3}
  - {fileID: 1499045747015775350, guid: 698b83bceb97c634baade9b8d78a4d46, type: 3}
  groundHit: {fileID: 191186, guid: 3888e74b5fa7f3f4a8c78e43b7c71fca, type: 3}
  bottleHit: {fileID: 465663234340492742, guid: 6547d330eeaaf4f45b272e7eee68526c,
    type: 3}
  playerDie: {fileID: 191186, guid: 9ba6e29ec90aee94e95bb2192fc70c43, type: 3}
  stoolHit: {fileID: 191186, guid: e77514e7b3d46cc449680f15dd531d13, type: 3}
