%YAML 1.1
%TAG !u! tag:unity3d.com,2011:
--- !u!1 &6595914650284662772
GameObject:
  m_ObjectHideFlags: 0
  m_CorrespondingSourceObject: {fileID: 0}
  m_PrefabInstance: {fileID: 0}
  m_PrefabAsset: {fileID: 0}
  serializedVersion: 6
  m_Component:
  - component: {fileID: 7913454245151895015}
  - component: {fileID: 1191547393093064657}
  - component: {fileID: 4879003001434483496}
  m_Layer: 0
  m_Name: blue yellow
  m_TagString: Untagged
  m_Icon: {fileID: 0}
  m_NavMeshLayer: 0
  m_StaticEditorFlags: 0
  m_IsActive: 0
--- !u!4 &7913454245151895015
Transform:
  m_ObjectHideFlags: 0
  m_CorrespondingSourceObject: {fileID: 0}
  m_PrefabInstance: {fileID: 0}
  m_PrefabAsset: {fileID: 0}
  m_GameObject: {fileID: 6595914650284662772}
  m_LocalRotation: {x: 0.7071068, y: -0, z: -0, w: 0.7071068}
  m_LocalPosition: {x: 0, y: 1.3, z: -1}
  m_LocalScale: {x: 0.7, y: 0.6999999, z: 0.6999999}
  m_Children:
  - {fileID: 8961872755556412662}
  m_Father: {fileID: 0}
  m_RootOrder: 0
  m_LocalEulerAnglesHint: {x: 90, y: 0, z: 0}
--- !u!33 &1191547393093064657
MeshFilter:
  m_ObjectHideFlags: 0
  m_CorrespondingSourceObject: {fileID: 0}
  m_PrefabInstance: {fileID: 0}
  m_PrefabAsset: {fileID: 0}
  m_GameObject: {fileID: 6595914650284662772}
  m_Mesh: {fileID: -1117082489390005245, guid: add6c00bb63208c4d964b8dd1f069c98, type: 3}
--- !u!23 &4879003001434483496
MeshRenderer:
  m_ObjectHideFlags: 0
  m_CorrespondingSourceObject: {fileID: 0}
  m_PrefabInstance: {fileID: 0}
  m_PrefabAsset: {fileID: 0}
  m_GameObject: {fileID: 6595914650284662772}
  m_Enabled: 1
  m_CastShadows: 1
  m_ReceiveShadows: 1
  m_DynamicOccludee: 1
  m_MotionVectors: 1
  m_LightProbeUsage: 1
  m_ReflectionProbeUsage: 1
  m_RayTracingMode: 2
  m_RenderingLayerMask: 1
  m_RendererPriority: 0
  m_Materials:
  - {fileID: -8067726398312463513, guid: add6c00bb63208c4d964b8dd1f069c98, type: 3}
  - {fileID: 2100000, guid: dafd6525438f48e40a3717682a4a2953, type: 2}
  - {fileID: 2100000, guid: dafd6525438f48e40a3717682a4a2953, type: 2}
  - {fileID: 2100000, guid: d5839a1aff17d4145aba04a3d2715e47, type: 2}
  - {fileID: 2100000, guid: 4edf356039ba37a47827f4a35d4844d8, type: 2}
  - {fileID: -8896051167825165466, guid: add6c00bb63208c4d964b8dd1f069c98, type: 3}
  m_StaticBatchInfo:
    firstSubMesh: 0
    subMeshCount: 0
  m_StaticBatchRoot: {fileID: 0}
  m_ProbeAnchor: {fileID: 0}
  m_LightProbeVolumeOverride: {fileID: 0}
  m_ScaleInLightmap: 1
  m_ReceiveGI: 1
  m_PreserveUVs: 0
  m_IgnoreNormalsForChartDetection: 0
  m_ImportantGI: 0
  m_StitchLightmapSeams: 1
  m_SelectedEditorRenderState: 3
  m_MinimumChartSize: 4
  m_AutoUVMaxDistance: 0.5
  m_AutoUVMaxAngle: 89
  m_LightmapParameters: {fileID: 0}
  m_SortingLayerID: 0
  m_SortingLayer: 0
  m_SortingOrder: 0
--- !u!1001 &4547665866711695065
PrefabInstance:
  m_ObjectHideFlags: 0
  serializedVersion: 2
  m_Modification:
    m_TransformParent: {fileID: 7913454245151895015}
    m_Modifications:
    - target: {fileID: 300235815511726857, guid: 7807806b356384646a847e27d218ea4b,
        type: 3}
      propertyPath: m_Name
      value: trails (1)
      objectReference: {fileID: 0}
    - target: {fileID: 300235815511726857, guid: 7807806b356384646a847e27d218ea4b,
        type: 3}
      propertyPath: m_IsActive
      value: 1
      objectReference: {fileID: 0}
    - target: {fileID: 4846570052590506543, guid: 7807806b356384646a847e27d218ea4b,
        type: 3}
      propertyPath: m_LocalPosition.x
      value: 0
      objectReference: {fileID: 0}
    - target: {fileID: 4846570052590506543, guid: 7807806b356384646a847e27d218ea4b,
        type: 3}
      propertyPath: m_LocalPosition.y
      value: -0.1
      objectReference: {fileID: 0}
    - target: {fileID: 4846570052590506543, guid: 7807806b356384646a847e27d218ea4b,
        type: 3}
      propertyPath: m_LocalPosition.z
      value: 0.01
      objectReference: {fileID: 0}
    - target: {fileID: 4846570052590506543, guid: 7807806b356384646a847e27d218ea4b,
        type: 3}
      propertyPath: m_LocalRotation.x
      value: -0.5
      objectReference: {fileID: 0}
    - target: {fileID: 4846570052590506543, guid: 7807806b356384646a847e27d218ea4b,
        type: 3}
      propertyPath: m_LocalRotation.y
      value: 0.5
      objectReference: {fileID: 0}
    - target: {fileID: 4846570052590506543, guid: 7807806b356384646a847e27d218ea4b,
        type: 3}
      propertyPath: m_LocalRotation.z
      value: 0.5
      objectReference: {fileID: 0}
    - target: {fileID: 4846570052590506543, guid: 7807806b356384646a847e27d218ea4b,
        type: 3}
      propertyPath: m_LocalRotation.w
      value: 0.5
      objectReference: {fileID: 0}
    - target: {fileID: 4846570052590506543, guid: 7807806b356384646a847e27d218ea4b,
        type: 3}
      propertyPath: m_RootOrder
      value: 0
      objectReference: {fileID: 0}
    - target: {fileID: 4846570052590506543, guid: 7807806b356384646a847e27d218ea4b,
        type: 3}
      propertyPath: m_LocalEulerAnglesHint.x
      value: -90
      objectReference: {fileID: 0}
    - target: {fileID: 4846570052590506543, guid: 7807806b356384646a847e27d218ea4b,
        type: 3}
      propertyPath: m_LocalEulerAnglesHint.y
      value: 0
      objectReference: {fileID: 0}
    - target: {fileID: 4846570052590506543, guid: 7807806b356384646a847e27d218ea4b,
        type: 3}
      propertyPath: m_LocalEulerAnglesHint.z
      value: 90
      objectReference: {fileID: 0}
    - target: {fileID: 4846570052590506543, guid: 7807806b356384646a847e27d218ea4b,
        type: 3}
      propertyPath: m_LocalScale.x
      value: 1
      objectReference: {fileID: 0}
    - target: {fileID: 4846570052590506543, guid: 7807806b356384646a847e27d218ea4b,
        type: 3}
      propertyPath: m_LocalScale.y
      value: 1
      objectReference: {fileID: 0}
    - target: {fileID: 4846570052590506543, guid: 7807806b356384646a847e27d218ea4b,
        type: 3}
      propertyPath: m_LocalScale.z
      value: 1
      objectReference: {fileID: 0}
    - target: {fileID: 5412656453059074002, guid: 7807806b356384646a847e27d218ea4b,
        type: 3}
      propertyPath: ShapeModule.radius.value
      value: 0.02
      objectReference: {fileID: 0}
    - target: {fileID: 5412656453059074002, guid: 7807806b356384646a847e27d218ea4b,
        type: 3}
      propertyPath: lengthInSec
      value: 2
      objectReference: {fileID: 0}
    - target: {fileID: 5412656453059074002, guid: 7807806b356384646a847e27d218ea4b,
        type: 3}
      propertyPath: InitialModule.startLifetime.scalar
      value: 0.5
      objectReference: {fileID: 0}
    - target: {fileID: 5412656453059074002, guid: 7807806b356384646a847e27d218ea4b,
        type: 3}
      propertyPath: InitialModule.startLifetime.minScalar
      value: 0.2
      objectReference: {fileID: 0}
    m_RemovedComponents: []
  m_SourcePrefab: {fileID: 100100000, guid: 7807806b356384646a847e27d218ea4b, type: 3}
--- !u!4 &8961872755556412662 stripped
Transform:
  m_CorrespondingSourceObject: {fileID: 4846570052590506543, guid: 7807806b356384646a847e27d218ea4b,
    type: 3}
  m_PrefabInstance: {fileID: 4547665866711695065}
  m_PrefabAsset: {fileID: 0}
